{
  "__file": "wp_block",
  "title": "Encabezado",
  "content": "<!-- wp:generateblocks/container {\"uniqueId\":\"fe85ab21\",\"containerWidth\":960,\"paddingTop\":\"180\",\"paddingRight\":\"100\",\"paddingBottom\":\"180\",\"paddingLeft\":\"100\",\"paddingTopTablet\":\"120\",\"paddingBottomTablet\":\"120\",\"paddingTopMobile\":\"60\",\"paddingRightMobile\":\"20\",\"paddingBottomMobile\":\"60\",\"paddingLeftMobile\":\"20\",\"backgroundColor\":\"#226e93\",\"gradient\":true,\"gradientDirection\":0,\"gradientColorOne\":\"#242424\",\"gradientColorOneOpacity\":0.4,\"gradientColorStopOne\":0,\"gradientColorTwo\":\"#242424\",\"gradientColorTwoOpacity\":0.4,\"gradientColorStopTwo\":100,\"bgImage\":{\"id\":143,\"image\":{\"url\":\"%%DOMAIN%%/encabezamiento-1.png\",\"height\":544,\"width\":725,\"orientation\":\"landscape\"}},\"bgOptions\":{\"selector\":\"pseudo-element\",\"opacity\":1,\"overlay\":false,\"position\":\"center center\",\"size\":\"cover\",\"repeat\":\"no-repeat\",\"attachment\":\"\"},\"showAdvancedTypography\":true,\"align\":\"full\",\"isDynamic\":true} -->\n<!-- wp:heading {\"textAlign\":\"center\",\"level\":1,\"style\":{\"typography\":{\"fontSize\":80}},\"textColor\":\"white\"} -->\n<h1 class=\"has-text-align-center has-white-color has-text-color\" style=\"font-size:80px\">Título de la página</h1>\n<!-- /wp:heading -->\n<!-- /wp:generateblocks/container -->\n\n<!-- wp:paragraph -->\n<p>Empieza a escribir aquí el contenido de la página. Puedes incluir imágenes y links</p>\n<!-- /wp:paragraph -->"
}